producer_class	xtools.gsea.Gsea
producer_timestamp	1556677239751
param	collapse	true
param	cls	D:\Johns Hopkins\CompGenomics\Data\liver_phenotype_KM.cls#Label_8
param	plot_top_x	20
param	norm	meandiv
param	save_rnd_lists	false
param	median	false
param	num	100
param	scoring_scheme	weighted
param	make_sets	true
param	mode	Max_probe
param	gmx	C:\Users\Ashley\Downloads\BOCHKIS.gmt,C:\Users\Ashley\Downloads\CHEN_LIVER.gmt,C:\Users\Ashley\Downloads\CHEN_METABOLIC_NETWORK.gmt,C:\Users\Ashley\Downloads\SANDERSON.gmt
param	gui	false
param	chip	D:\Johns Hopkins\CompGenomics\chp1.chip
param	metric	Pearson
param	rpt_label	my_analysis
param	help	false
param	order	descending
param	out	C:\Users\Ashley\gsea_home\output\apr30
param	create_svgs	false
param	permute	gene_set
param	rnd_type	no_balance
param	set_min	15
param	include_only_symbols	true
param	sort	real
param	create_gcts	false
param	rnd_seed	timestamp
param	nperm	1000
param	zip_report	false
param	set_max	500
param	res	D:\Johns Hopkins\CompGenomics\Data\jbc.M110.216986-3.txt

file	C:\Users\Ashley\gsea_home\output\apr30\my_analysis.Gsea.1556677239751\index.html
